%YAML 1.1
%TAG !u! tag:unity3d.com,2011:
--- !u!114 &11400000
MonoBehaviour:
  m_ObjectHideFlags: 0
  m_CorrespondingSourceObject: {fileID: 0}
  m_PrefabInstance: {fileID: 0}
  m_PrefabAsset: {fileID: 0}
  m_GameObject: {fileID: 0}
  m_Enabled: 1
  m_EditorHideFlags: 0
  m_Script: {fileID: 11500000, guid: 2649600369567b54eb374d10d9282e81, type: 3}
  m_Name: SmallFloaty5-5
  m_EditorClassIdentifier: 
  Creeps:
  - Creep: {fileID: 582687810473551141, guid: af185ed5eb7654041b51b25083ce4238, type: 3}
    Weight: 0.5
  - Creep: {fileID: 582687810473551141, guid: 5f914108e7122e4498515ae0127d492b, type: 3}
    Weight: 0
  - Creep: {fileID: 7326118650001951903, guid: cae6ef16b3f2d6a4bbe4aff063bc9929, type: 3}
    Weight: 0.5
