%YAML 1.1
%TAG !u! tag:unity3d.com,2011:
--- !u!114 &11400000
MonoBehaviour:
  m_ObjectHideFlags: 0
  m_CorrespondingSourceObject: {fileID: 0}
  m_PrefabInstance: {fileID: 0}
  m_PrefabAsset: {fileID: 0}
  m_GameObject: {fileID: 0}
  m_Enabled: 1
  m_EditorHideFlags: 0
  m_Script: {fileID: 11500000, guid: 1adea44b189ef2b4fa782d898f07a3a7, type: 3}
  m_Name: TestWeaponBall
  m_EditorClassIdentifier: 
  _clip: {fileID: 0}
  m_ReloadTime: 0.1
  m_MaxRange: 3
  m_BulletPrefab: {fileID: 4512848912967830146, guid: 477ce723d61dac543a496daeeac0e162, type: 3}
  m_TargettingMode: 0
  m_weaponSpriteFrames:
  - {fileID: -8447016333053444421, guid: c9104adf52fff724492efc37a52f6d9c, type: 3}
  - {fileID: -5143436697391883744, guid: c9104adf52fff724492efc37a52f6d9c, type: 3}
  - {fileID: -5316182004753045319, guid: c9104adf52fff724492efc37a52f6d9c, type: 3}
  - {fileID: 882349508203035565, guid: c9104adf52fff724492efc37a52f6d9c, type: 3}
  - {fileID: -605409672724047501, guid: c9104adf52fff724492efc37a52f6d9c, type: 3}
  - {fileID: 784821963841947424, guid: c9104adf52fff724492efc37a52f6d9c, type: 3}
  - {fileID: -9198180857131137310, guid: c9104adf52fff724492efc37a52f6d9c, type: 3}
  - {fileID: 8753914672397563344, guid: c9104adf52fff724492efc37a52f6d9c, type: 3}
  _soundId: 4
